<?xml version="1.0" encoding="UTF-8" standalone="no"?>
<svg
   xmlns:dc="http://purl.org/dc/elements/1.1/"
   xmlns:cc="http://creativecommons.org/ns#"
   xmlns:rdf="http://www.w3.org/1999/02/22-rdf-syntax-ns#"
   xmlns:svg="http://www.w3.org/2000/svg"
   xmlns="http://www.w3.org/2000/svg"
   xmlns:sodipodi="http://sodipodi.sourceforge.net/DTD/sodipodi-0.dtd"
   xmlns:inkscape="http://www.inkscape.org/namespaces/inkscape"
   sodipodi:docname="SoccerPlayerBlue.svg"
   inkscape:version="1.0 (4035a4f, 2020-05-01)"
   id="svg999"
   version="1.1"
   viewBox="0 0 52.359165 88.446426"
   height="88.446426mm"
   width="52.359165mm">
  <defs
     id="defs993" />
  <sodipodi:namedview
     fit-margin-bottom="0"
     fit-margin-right="0"
     fit-margin-left="0"
     fit-margin-top="0"
     inkscape:window-maximized="0"
     inkscape:window-y="23"
     inkscape:window-x="0"
     inkscape:window-height="855"
     inkscape:window-width="1440"
     showgrid="false"
     inkscape:document-rotation="0"
     inkscape:current-layer="layer1"
     inkscape:document-units="mm"
     inkscape:cy="376.85931"
     inkscape:cx="157.91412"
     inkscape:zoom="0.55299218"
     inkscape:pageshadow="2"
     inkscape:pageopacity="0.0"
     borderopacity="1.0"
     bordercolor="#666666"
     pagecolor="#ffffff"
     id="base" />
  <metadata
     id="metadata996">
    <rdf:RDF>
      <cc:Work
         rdf:about="">
        <dc:format>image/svg+xml</dc:format>
        <dc:type
           rdf:resource="http://purl.org/dc/dcmitype/StillImage" />
        <dc:title></dc:title>
      </cc:Work>
    </rdf:RDF>
  </metadata>
  <g
     transform="translate(-83.154755,-86.934517)"
     id="layer1"
     inkscape:groupmode="layer"
     inkscape:label="Layer 1">
    <ellipse
       ry="12.282985"
       rx="23.28854"
       cy="110.2295"
       cx="112.22538"
       id="path1005"
       style="fill:#000000;stroke:none;stroke-width:2.08114" />
    <ellipse
       style="fill:#000000;stroke:none;stroke-width:2.08114"
       id="path1005-4"
       cx="112.22538"
       cy="151.91595"
       rx="23.28854"
       ry="12.282986" />
    <ellipse
       ry="44.223213"
       rx="21.158878"
       cy="131.15773"
       cx="106.12814"
       id="path1001"
       style="fill:#5f5fd3;stroke:none;stroke-width:0.754017" />
    <circle
       r="23.056549"
       cy="130.40178"
       cx="106.2113"
       id="path1003"
       style="fill:#212178;stroke:none;stroke-width:1" />
  </g>
</svg>
