<?xml version="1.0" encoding="UTF-8" standalone="no"?>
<svg
   xmlns:dc="http://purl.org/dc/elements/1.1/"
   xmlns:cc="http://creativecommons.org/ns#"
   xmlns:rdf="http://www.w3.org/1999/02/22-rdf-syntax-ns#"
   xmlns:svg="http://www.w3.org/2000/svg"
   xmlns="http://www.w3.org/2000/svg"
   xmlns:sodipodi="http://sodipodi.sourceforge.net/DTD/sodipodi-0.dtd"
   xmlns:inkscape="http://www.inkscape.org/namespaces/inkscape"
   inkscape:version="1.0 (4035a4f, 2020-05-01)"
   sodipodi:docname="player2.svg"
   id="svg8"
   version="1.1"
   viewBox="0 0 61.12825 61.12825"
   height="61.12825mm"
   width="61.12825mm">
  <defs
     id="defs2" />
  <sodipodi:namedview
     fit-margin-bottom="0"
     fit-margin-right="0"
     fit-margin-left="0"
     fit-margin-top="0"
     inkscape:window-maximized="0"
     inkscape:window-y="23"
     inkscape:window-x="0"
     inkscape:window-height="855"
     inkscape:window-width="1252"
     showgrid="false"
     inkscape:document-rotation="0"
     inkscape:current-layer="layer1"
     inkscape:document-units="mm"
     inkscape:cy="62.08184"
     inkscape:cx="-26.913615"
     inkscape:zoom="1.1627146"
     inkscape:pageshadow="2"
     inkscape:pageopacity="0.0"
     borderopacity="1.0"
     bordercolor="#666666"
     pagecolor="#ffffff"
     id="base" />
  <metadata
     id="metadata5">
    <rdf:RDF>
      <cc:Work
         rdf:about="">
        <dc:format>image/svg+xml</dc:format>
        <dc:type
           rdf:resource="http://purl.org/dc/dcmitype/StillImage" />
        <dc:title></dc:title>
      </cc:Work>
    </rdf:RDF>
  </metadata>
  <g
     transform="translate(-39.325203,-36.982544)"
     id="layer1"
     inkscape:groupmode="layer"
     inkscape:label="Layer 1">
    <circle
       inkscape:export-ydpi="96"
       inkscape:export-xdpi="96"
       r="30.064125"
       cy="67.546669"
       cx="69.889328"
       id="path833"
       style="fill:#0000ff;stroke:#000000;stroke-width:1" />
    <circle
       r="6.8266969"
       cy="59.392262"
       cx="60.530045"
       id="path835"
       style="fill:#ffffff;stroke:#000000;stroke-width:1" />
    <ellipse
       ry="2.2755656"
       rx="2.7306788"
       cy="63.488277"
       cx="60.985157"
       id="path839"
       style="fill:#000000;stroke:#000000;stroke-width:1" />
    <circle
       style="fill:#ffffff;stroke:#000000;stroke-width:1"
       id="path835-8"
       cx="79.644798"
       cy="59.61982"
       r="6.8266969" />
    <ellipse
       style="fill:#000000;stroke:#000000;stroke-width:1"
       id="path839-6"
       cx="80.099907"
       cy="63.715836"
       rx="2.7306788"
       ry="2.2755656" />
    <ellipse
       ry="6.3715835"
       rx="13.19828"
       cy="78.734566"
       cx="69.177193"
       id="path859"
       style="fill:#000000;stroke:#000000;stroke-width:1" />
  </g>
</svg>
