[gd_scene load_steps=5 format=2]

[ext_resource path="res://Resources/ball.svg" type="Texture" id=1]
[ext_resource path="res://Ball.gd" type="Script" id=2]

[sub_resource type="PhysicsMaterial" id=1]
friction = 0.3
bounce = 0.7

[sub_resource type="CircleShape2D" id=2]
radius = 21.5764

[node name="Ball" type="RigidBody2D"]
collision_layer = 2
collision_mask = 2
physics_material_override = SubResource( 1 )
continuous_cd = 2
contacts_reported = 2
contact_monitor = true
script = ExtResource( 2 )

[node name="CollisionShape2D" type="CollisionShape2D" parent="."]
shape = SubResource( 2 )

[node name="BallSprite" type="Sprite" parent="."]
scale = Vector2( 0.15, 0.15 )
texture = ExtResource( 1 )
