[gd_scene load_steps=5 format=2]

[sub_resource type="PhysicsMaterial" id=1]
rough = true
bounce = 0.8
absorbent = true

[sub_resource type="CubeMesh" id=2]

[sub_resource type="SpatialMaterial" id=3]
albedo_color = Color( 0.368627, 0.211765, 0.00784314, 1 )
metallic_specular = 0.0

[sub_resource type="ConvexPolygonShape" id=4]
points = PoolVector3Array( -1, 1, 1, 1, 1, -1, 1, 1, 1, -1, 1, -1, -1, -1, 1, 1, -1, -1, 1, -1, 1, -1, -1, -1, 1, 1, 1, -1, 1, -1, 1, 1, -1, -1, 1, 1, 1, -1, 1, -1, -1, -1, 1, -1, -1, -1, -1, 1, 1, 1, 1, -1, -1, 1, -1, 1, 1, 1, -1, 1, 1, 1, -1, -1, -1, -1, -1, 1, -1, 1, -1, -1 )

[node name="Door" type="RigidBody"]
physics_material_override = SubResource( 1 )

[node name="MeshInstance" type="MeshInstance" parent="."]
transform = Transform( 1, 0, 0, 0, 2, 0, 0, 0, 0.2, 0, 0, 0 )
mesh = SubResource( 2 )
material/0 = SubResource( 3 )

[node name="CollisionShape" type="CollisionShape" parent="."]
transform = Transform( 1, 0, 0, 0, 2, 0, 0, 0, 0.2, 0, 0, 0 )
shape = SubResource( 4 )
